<?xml version="1.0" encoding="UTF-8"?>
<COLLADA xmlns="http://www.collada.org/2005/11/COLLADASchema" version="1.4.1">
    <asset>
        <contributor>
            <author>VCGLab</author>
            <authoring_tool>VCGLib | MeshLab</authoring_tool>
        </contributor>
        <created>to touko 4 09:01:08 2017 GMT</created>
        <modified>to touko 4 09:01:08 2017 GMT</modified>
        <up_axis>Y_UP</up_axis>
    </asset>
    <library_geometries>
        <geometry id="shape0-lib" name="shape0">
            <mesh>
                <source id="shape0-lib-positions" name="position">
                    <float_array id="shape0-lib-positions-array" count="654">-0.198041 0.066 0.295894 0.0049009 0.01 0.656343 0.0199495 0 0.661867 0.0199952 0.01 0.661345 0.349852 0.0300137 0.541489 0.332036 0.0300137 0.584857 0.324515 0 0.599649 0.266673 0.0300137 0.650983 0.28614 0 0.639755 0.303675 0.0300137 0.62219 0.144722 0.0300137 0.673375 0.222167 0.005 0.671028 0.237484 0 0.66647 0.274419 -0.0475 0.645065 -0.2155 0.0494321 0.279263 -0.138106 0.0906245 0.187568 0 0.162257 0.1805 -0.193 0.065 0.575 0.314109 -0.0475 0.609248 0.356544 0.005 0.479117 0.223515 0.0300137 0.669301 0.201412 0.005 0.675314 0.189026 0.0300137 0.675383 0.190883 0.005 0.676544 0.211852 0.005 0.673473 0.22596 -0.0475 0.667647 0.183047 0 0.677323 0.266115 -0.106 0.603587 0.22331 -0.1065 0.627732 0.223481 -0.106 0.628201 0.216898 -0.1225 0.610112 -0.151939 0.0569363 0.1805 -0.135715 0.0889316 0.1805 -0.212528 0.0502655 0.27335 -0.0337397 0.15871 0.1805 -0.0624682 0.14975 0.1805 -0.0607153 0.153622 0.187568 -0.117659 0.118513 0.195 0.355866 0.0300137 0.490321 0.355927 0.0300137 0.495 0.355685 0.0300137 0.485644 0.21036 0.0139562 0.154639 0.208892 0.012 0.154 0.211014 0.0148284 0.155465 0.216247 0.0087226 0.155465 0.216976 0.0091112 0.156555 0.353473 0.005 0.458148 0.355314 0.005 0.468588 0.354923 0 0.464436 0.355383 0.0300137 0.480974 0.196888 -0.107 0.267616 -0.176933 0.0865 0.546 0.265794 -0.1065 0.603204 0.253742 -0.1225 0.58884 0.173007 -0.0475 0.675 0.120229 -0.0475 0.666476 -0.217559 7e-07 0.27534 -0.205024 -0.0594419 0.338 -0.206481 -0.0580597 0.338 -0.215 0.038 0.575 0.0199952 -0.01 0.661345 0.0049009 -0.01 0.656343 0.0046258 0 0.656789 -0.0902619 0.138343 0.187568 -0.0845834 0.138467 0.1805 -0.112479 0.116944 0.1805 -0.11665 0.116956 0.187568 -0.097385 0.135666 0.195 -0.0877915 0.142062 0.195 -0.0773388 0.148013 0.195 0.347263 0 0.434736 0.334737 0 0.406738 0.351179 -0.0475 0.458056 0.351028 0.005 0.447833 0.345005 0.0300137 0.433089 0.349301 0.0300137 0.446485 0.33968 0.0300137 0.420067 0.215285 0.0082095 0.154639 0.0962585 -0.1225 0.58884 0.219254 0 0.156555 0.297326 -0.1065 0.424375 0.281088 -0.1225 0.43375 0.0616137 -0.221334 0.261609 0.354259 -0.0475 0.511429 0.341529 -0.0475 0.563353 0.355011 -0.0475 0.495 0.349059 0 0.549862 0.3575 0 0.495 0.281088 -0.1225 0.55625 0.297326 -0.1065 0.565625 0.297759 -0.106 0.565875 0.175 -0.1225 0.6175 0.199615 -0.106 0.634597 0.175 -0.106 0.63675 -0.166259 0.009 0.180277 -0.166259 -0.009 0.180277 -0.151939 -0.0569363 0.1805 -0.138106 -0.0906245 0.187568 -0.135715 -0.0889316 0.1805 -0.212524 -0.0502656 0.273346 -0.2155 -0.0494321 0.279263 0.0523418 -0.213842 0.24555 0.0602393 -0.221706 0.262229 0.0509675 -0.214214 0.246169 0.213128 0.0070588 0.154 0.0939711 -0.132276 0.1805 0.0627703 -0.220316 0.261416 0.12669 -0.1065 0.627732 0.175 -0.1065 0.63625 0.126519 -0.106 0.628201 0.133103 -0.1225 0.610112 -0.204421 -0.0599946 0.353 -0.215 -0.043 0.575 0.0202989 -0.213842 0.26405 0.0215226 -0.214214 0.263169 0.0295707 -0.221334 0.280109 0.0307945 -0.221706 0.279229 0.214892 0 0.154 0.217338 0 0.154639 0.270241 -0.0475 0.29516 0.211509 -0.015489 0.156555 0.297759 -0.106 0.424125 0.332558 -0.0475 0.407941 0.199975 -0.0900233 0.246757 -0.117659 -0.118513 0.195 -0.0624682 -0.14975 0.1805 -0.0607153 -0.153622 0.187568 -0.0337397 -0.15871 0.1805 0.208892 -0.012 0.154 0.213128 -0.0070588 0.154 0.216247 -0.0087226 0.155465 0.211014 -0.0148284 0.155465 0.216976 -0.0091112 0.156555 0.218428 0 0.155465 0.215285 -0.0082095 0.154639 0.21036 -0.0139562 0.154639 -0.188 -0.065 0.575 -0.097385 -0.135666 0.195 -0.0845834 -0.138467 0.1805 -0.112479 -0.116944 0.1805 -0.11665 -0.116956 0.187568 -0.0877915 -0.142062 0.195 -0.0902619 -0.138343 0.187568 -0.0773388 -0.148013 0.195 -0.215931 0.0490233 0.282725 -0.2185 0 0.338 -0.215931 0.0490233 0.338 -0.2185 0 0.280569 -0.215931 -0.0490233 0.338 -0.215931 -0.0490233 0.282725 0.085 0.3195 0.54 0.263794 0.3195 0.5445 0.265 0.3195 0.54 0.2245 0.3195 0.406206 0.22 0.3195 0.405 0.22 0.3195 0.585 0.2245 0.3195 0.583794 0.2605 0.3195 0.442206 0.2605 0.3195 0.547794 0.1255 0.3195 0.406206 0.0895 0.3195 0.442206 0.13 0.3195 0.405 0.265 0.3195 0.45 0.0862058 0.3195 0.4455 0.085 0.3195 0.45 0.263794 0.3195 0.4455 0.1255 0.3195 0.583794 0.13 0.3195 0.585 0.0895 0.3195 0.547794 0.0862058 0.3195 0.5445 0.0635 0.3017 0.474534 0.0635 0.3017 0.487466 -0.136448 0.123373 0.268684 -0.136448 0.123373 0.261316 0.314104 -0.1065 0.519528 0.295639 -0.1225 0.516272 0.295639 -0.1225 0.473728 0.314104 -0.1065 0.470472 0.314597 -0.106 0.470385 0.314597 -0.106 0.519615 -0.142518 0.0267274 0.1535 -0.142518 -0.0267274 0.1535 -0.166626 -0.002 0.18027 -0.166626 0.002 0.18027 0.032544 -0.216556 0.2635 0.049218 -0.219364 0.261898 0.0455344 -0.216556 0.256 0.0362276 -0.219364 0.269398 -0.136448 -0.123373 0.268684 -0.136448 -0.123373 0.261316 -0.198041 -0.066 0.295894 -0.198041 -0.066 0.338 0.141426 -0.0308024 0.1535 0.120969 0.0801881 0.1535 0.141426 0.0308024 0.1535 0.0308024 0.141426 0.1535 0.0267274 0.142518 0.1535 -0.0801881 0.120969 0.1535 -0.120969 0.0801881 0.1535 -0.0801881 -0.120969 0.1535 -0.120969 -0.0801881 0.1535 -0.0267274 0.142518 0.1535 -0.0308024 0.141426 0.1535 -0.0308024 -0.141426 0.1535 -0.0267274 -0.142518 0.1535 0.0801881 0.120969 0.1535 0.142518 0.0267274 0.1535 0.142518 -0.0267274 0.1535 -0.141426 0.0308024 0.1535 0.0267274 -0.142518 0.1535 0.0308024 -0.141426 0.1535 -0.141426 -0.0308024 0.1535 0.0801881 -0.120969 0.1535 0.120969 -0.0801881 0.1535 -0.0914436 -0.159373 0.268876 -0.0914436 -0.159373 0.261124 -0.0881887 -0.161367 0.261333 -0.0881887 -0.161367 0.268667</float_array>
                    <technique_common>
                        <accessor count="218" source="#shape0-lib-positions-array" stride="3">
                            <param name="X" type="float"/>
                            <param name="Y" type="float"/>
                            <param name="Z" type="float"/>
                        </accessor>
                    </technique_common>
                </source>
                <source id="shape0-lib-normals" name="normal">
                    <float_array id="shape0-lib-normals-array" count="1296">-0.866103 -0.264315 0.424267 0.998609 -0.0523348 -0.00635616 -0.892777 -0.261589 -0.36677 -0.929068 -0.273603 -0.248945 -0.768362 -0.262503 -0.583706 0.136957 -0.282852 -0.949335 -0.990234 -0.0518935 -0.129395 -0.951999 -0.279684 -0.124399 0.354511 -0.865242 0.354511 -0.174976 -0.736865 0.653003 0.314137 0.0509365 -0.94801 -0.792444 -0.0981236 -0.602001 -0.421033 0.0797639 -0.903531 -0.35752 0.532478 -0.767233 0.991533 -0.057093 0.11663 0.568336 -0.568336 0.59497 0.652069 -0.540885 0.531271 -0.892282 -0.265956 0.36483 -0.916906 -0.26983 0.294065 -0.954045 -0.299664 0 -0.929075 -0.273578 0.248945 -0.946117 -0.277544 0.166827 0 -0.807267 0.590187 -0.012664 -0.813133 0.58194 -0.653235 -0.460771 0.600811 -0.278229 -0.671702 0.686589 -0.194392 -0.725478 0.660223 -0.615364 0.755754 0.223973 -0.523415 0.830508 0.190507 0.245747 -0.313593 -0.917207 0.282824 -0.322735 -0.903246 0.684096 -0.729343 0.00842434 0.650867 -0.736249 -0.185228 0.776748 -0.628982 -0.0323057 0.774652 -0.631198 -0.0387625 0.692901 -0.721032 0 0.690827 -0.72302 0.000590164 0.687612 -0.726077 0.00147982 0.682293 -0.731075 0.00233844 0.673357 -0.739317 0 0.340729 -0.0512555 -0.938763 0.314137 -0.0509365 -0.94801 0.307622 -0.250655 -0.9179 0.303511 -0.262551 -0.915941 0.094336 -0.0104546 -0.995486 0.104196 -0.0523278 -0.993179 0.0943022 0.0287325 -0.995129 0.101482 0.0523301 -0.99346 0.314133 -0.0509291 -0.948012 0.314133 0.0509291 -0.948012 -0.988238 -0.0162831 -0.152057 -0.921926 -0.0812763 -0.378744 -0.896914 0.00683855 -0.442151 -0.66771 0.0820455 -0.739887 -0.722416 0.0175192 -0.691237 -0.722402 0.0185864 -0.691223 -0.481177 0.0207602 -0.876378 -0.20448 0.963716 -0.171579 -0.855417 0.0841317 -0.511062 -0.896812 0.0166087 -0.442101 -0.592491 -0.263039 -0.761423 -0.377145 -0.261176 -0.888565 -0.61088 -0.102548 -0.785054 -0.388955 -0.0945916 -0.916388 -0.481221 0.0157434 -0.876458 -0.679645 -0.276024 -0.679627 -0.679636 -0.276025 -0.679636 -0.17305 -0.0829925 -0.98141 0.0433168 -0.289691 -0.95614 -0.0662624 -0.0512069 -0.996487 0.0451354 -0.0733843 -0.996282 -0.299722 -0.0496329 -0.952735 -0.230264 -0.054678 -0.971591 -0.272276 0.0422463 -0.961291 -0.230365 0.0459657 -0.972018 0.153084 0.279483 -0.947868 -0.126425 0.967506 -0.218974 -0.126425 0.967506 -0.218974 -0.412499 0.565139 -0.714467 -0.569029 0.527851 -0.630539 -0.116813 0.527878 -0.841249 -0.215788 0.552159 -0.80533 0.982693 -0.0549636 0.1769 0.895174 -0.0721851 0.439833 0.302381 -0.865581 0.399168 0.26947 -0.863973 0.425366 0.74067 -0.552148 0.382806 0.691381 -0.679773 0.244745 0.695402 -0.671904 0.254875 0.725783 -0.591386 0.351429 0.700476 -0.581038 0.414401 0.716389 -0.583732 0.382157 -0.954594 -0.291427 0.0618145 0 -0.819073 0.57369 0.0622841 -0.834072 0.548129 0.0991359 -0.841803 0.530604 0.136426 -0.849804 0.509137 -0.619125 -0.483081 0.619125 -0.619125 -0.483082 0.619125 -0.458683 -0.552476 0.695974 -0.583776 -0.500376 0.639398 -0.0253192 -0.0253192 0.999359 0.568336 0.568336 0.59497 -0.877669 -0.219416 0.426091 -0.9696 0.0440902 0.24069 -0.993065 -0.0186636 0.116075 -0.991752 -0.0546759 0.115922 -0.997897 -0.0461623 0.0454994 -0.996607 -0.0510854 0.064535 0.208509 0.55106 -0.807996 0.223896 0.482592 -0.846744 -0.00808143 -0.00334745 0.999962 -0.0169583 -0.0145357 0.999751 0.535992 -0.652257 -0.535978 0.535988 -0.652253 -0.535987 0.561474 -0.807444 0.181056 0.577807 -0.801354 0.154827 0.354511 -0.865242 0.354511 0.424439 -0.852101 0.306228 0.666685 -0.745338 -0.00177444 -0.29952 0.949521 -0.09326 -0.288021 0.951869 -0.104831 -0.389049 0.921217 0 -0.729548 0.527052 -0.435863 -0.630319 0.568298 -0.528901 -0.836352 0.541285 0.0867474 -0.995716 0.0521837 0.0763274 -0.992599 0.0644043 0.102953 -0.994283 0.0564663 0.0906216 -0.248928 -0.273579 -0.92908 -0.166827 -0.277544 -0.946117 0 -0.298029 -0.954557 -0.115924 -0.0546748 -0.991752 -0.173048 -0.0829903 -0.981411 -0.173307 0.0625052 -0.982882 -0.116054 0.0273936 -0.992865 -0.128724 0.075564 -0.988797 -0.137096 0.0800847 -0.987315 -0.356268 0.701637 -0.617073 -0.32743 0.755752 -0.567123 -0.545847 0.701619 -0.45802 -0.106933 0.787897 -0.606451 0.0532235 0.951869 -0.301849 -0.0463513 0.963716 -0.262874 -0.183365 0.705743 -0.684327 -0.166227 0.759362 -0.629076 -0.356247 0.701677 -0.617039 -0.327429 0.755751 -0.567125 0.880644 -0.0695906 0.46864 0.781649 -0.396369 0.481578 0.81951 -0.247212 0.517001 0.801738 -0.24204 0.546473 0.746146 -0.309065 0.5897 0.753408 -0.382048 0.535178 0.895097 0.0721923 0.439989 0.991533 0.057093 0.11663 0.98269 0.054963 0.176914 0.753408 0.382048 0.535178 0.781651 0.39637 0.481574 0.652069 0.540885 0.531271 0.691109 0.72275 0 0.691109 0.722749 -0.00166366 0.689944 0.723863 0.000381038 0.308551 -0.744906 0.591534 0.217351 -0.811162 0.542931 0.250384 -0.80278 0.541158 0.520913 -0.675148 0.522327 0.380836 -0.746429 0.545718 0.425504 -0.833979 0.35132 0.432308 -0.83714 0.335122 0.628205 -0.74253 0.232397 0.658573 -0.713595 0.23888 0.626957 -0.741054 0.24034 -0.95452 -0.297891 0.012365 -0.95491 -0.294573 0.0370627 -0.998546 -0.0523291 0.0129353 -0.998082 -0.0482809 0.0387384 -0.165855 -0.191454 0.967387 -0.387923 -0.463394 0.796732 -0.196249 -0.168212 0.966018 -0.196248 -0.168212 0.966018 -0.465436 -0.398942 0.790073 -0.465439 -0.398945 0.790069 -0.586127 0.668695 0.457497 -0.503789 0.674523 0.539644 -0.907332 -0.0365677 0.418821 -0.906702 0.0521997 0.41853 -0.781768 -0.195446 0.592149 -0.781787 -0.195446 0.592123 -0.597018 -0.149258 0.78822 -0.982599 -0.0669589 0.173252 -0.971589 -0.0546801 0.230269 -0.973014 0.00794847 0.230607 -0.98141 -0.0829972 0.17305 -0.981412 -0.0829899 0.173042 0.202067 0.9147 -0.34999 0.244094 0.872739 0.422783 0.187301 0.927186 0.324415 0.187309 0.927183 0.324419 -0.784381 0.550673 0.285491 -0.784521 0.547319 0.291495 -0.653595 0.631465 0.417212 -0.669546 0.701656 0.243695 -0.605724 0.695804 0.385947 0.543561 -0.815221 0.199892 0.652171 -0.737654 -0.174754 0.664282 -0.747249 -0.0186741 0.652305 -0.757639 0.0219527 -0.774047 0.566991 -0.28173 -0.822757 0.568393 0 -0.545819 0.701657 -0.457996 -0.50165 0.755753 -0.420933 -0.50165 0.755752 -0.420934 -0.0731276 0.544034 -0.835871 0.144729 0.552579 -0.820799 0.133624 0.545523 -0.827375 0.881472 0 0.472237 0.88092 -0.0466496 0.47096 0.7608 0.0405327 0.647719 0.819513 0.247213 0.516996 0.88092 0.0466496 0.47096 0.880644 0.0696084 0.468637 0.695518 0.671672 0.25517 0.700476 0.581038 0.414401 0.687842 0.725859 0.00102165 0.688364 0.725365 0.000844474 0.684577 0.728941 0 0.688364 0.725365 -0.000949329 0.684576 0.728941 -0.000665298 0.703901 0.709994 -0.0208088 0.998616 0.0523352 -0.00525208 0.999891 0 -0.0147663 0.305595 0.23686 -0.922231 0.280757 0.344566 -0.895796 0.348988 0 -0.937127 0.339703 0.0512443 -0.939136 0.551368 -0.714621 0.430477 0.589947 -0.727909 0.349444 0.599059 -0.739152 0.307868 0.54041 -0.810495 0.225954 0.433966 -0.836723 0.33402 0.476237 -0.838939 0.263399 0.480812 -0.837597 0.259327 -0.911575 0.0521516 0.407813 -0.933296 0.0933073 0.346774 -0.964662 0.0476959 0.259136 -0.950796 -0.0548005 0.304934 -0.954621 -0.0500965 0.293581 -0.924514 -0.048814 0.378009 -0.912378 -0.0310067 0.408172 -0.252214 -0.0630541 0.965615 -0.597011 -0.149254 0.788226 0.459872 0.878907 -0.126651 0.20238 0.919144 -0.33796 0.069006 0.94952 -0.306024 0.194525 0.921217 -0.336927 -0.429884 0.697334 0.57352 -0.0432444 0.895586 0.442782 -0.0431877 0.895599 0.442761 0.187301 0.927183 0.324424 -0.252212 -0.063053 0.965616 0.132197 0.834548 0.53484 0.0455762 0.808229 0.587102 0 0.790475 0.612494 -0.503809 0.674516 0.539635 -0.873551 0.218387 0.43499 -0.781787 0.195446 0.592123 -0.615365 0.755752 0.223975 -0.669537 0.701666 0.243692 -0.576724 0.760352 0.298753 -0.589957 0.733951 0.336552 -0.601515 0.706939 0.372045 -0.82354 0.530105 -0.201918 -0.829558 0.557131 -0.0379311 -0.967634 0.0860155 -0.237248 -0.98826 0.0148291 -0.15206 -0.99759 0.0522819 -0.0456143 -0.615364 0.755754 -0.223973 -0.615365 0.755753 -0.223974 -0.669545 0.701657 -0.243695 -0.669544 0.701659 -0.243694 -0.058954 0.759364 -0.64799 -0.0617469 0.705731 -0.705784 0.113714 0.755753 -0.644909 0.123728 0.701647 -0.7017 0.796863 -0.21352 0.565172 0.7608 -0.0405325 0.647719 0.801738 0.24204 0.546473 0.796863 0.21352 0.565172 0.746146 0.309065 0.5897 0.740677 0.552139 0.382806 0.725785 0.591388 0.35142 0.716389 0.583732 0.382157 0.691381 0.679773 0.244745 0.684096 0.729343 0.00842424 0.453782 0.891113 0 0.417475 0.875181 0.244484 0.270876 0.873187 0.405181 0.40984 0.875528 0.255894 -0.296445 0.715679 0.632395 -0.200092 0.74675 0.634293 0.187302 0.927185 0.324417 0.187301 0.927183 0.324424 0.187309 0.927183 0.324419 0.187308 0.92718 0.324427 0.187307 0.92718 0.324426 -0.00690823 0 0.999976 -0.00765195 -0.00205034 0.999969 -0.00761083 -0.00190271 0.999969 -0.553959 0.661242 0.505855 -0.533259 0.648153 0.543629 -0.579187 0.663241 0.473976 -0.597011 0.149254 0.788226 0.123727 0.701654 -0.701694 0.113715 0.755751 -0.64491 0.20659 0.706602 -0.676782 0.203609 0.76054 -0.61654 0.678029 0.735011 -0.00588019 0.664633 0.746735 -0.0254927 0.631131 0.774571 -0.0413875 0.421195 0.881782 0.212262 0.425742 0.888939 0.168913 0.405046 0.895596 0.183971 0.405075 0.895588 0.183947 0.432308 0.83714 0.335122 0.520913 0.675148 0.522327 0.217351 0.811162 0.542931 -0.00761083 0.00190271 0.999969 -0.196249 0.168212 0.966018 -0.252212 0.063053 0.965616 -0.252214 0.0630541 0.965615 -0.387923 0.463394 0.796732 -0.507903 0.614857 0.603311 -0.610523 0.523317 0.594476 -0.686603 0.58853 0.42686 -0.732372 0.547607 0.404671 -0.772816 0.46948 0.427018 -0.664107 0.617335 0.421734 -0.664437 0.615616 0.423722 0.610172 0.761618 0.218236 0.658573 0.713595 0.23888 0.626957 0.741054 0.24034 0.628205 0.74253 0.232397 0.308551 0.744905 0.591534 0.380836 0.746429 0.545718 0.425504 0.833979 0.35132 0.271615 0.870852 0.409685 0.250384 0.80278 0.541158 -0.00765195 0.00205034 0.999969 -0.00808143 0.00334745 0.999962 -0.0253193 0.0253193 0.999359 -0.0169583 0.0145357 0.999751 -0.165855 0.191454 0.967387 -0.196248 0.168212 0.966018 -0.6105 0.523283 0.594529 -0.781768 0.195446 0.592149 -0.597018 0.149258 0.78822 -0.465436 0.398942 0.790073 -0.465439 0.398945 0.790069 0.515153 0.851252 -0.0999387 0.624179 0.780063 -0.0436042 0.549282 0.801072 0.237853 0.433966 0.836723 0.33402 0.551368 0.714621 0.430477 0.589947 0.727909 0.349444 0.599059 0.739152 0.307868 0.494939 0.833513 0.245543 0.508352 0.825782 0.24426 0.479275 0.841927 0.247898 0.477561 0.838916 0.261067 0.99863 -0.0523359 0 0.99863 -0.0523359 0 0.99863 0.0523359 0 0.99863 0.0523359 0 0 -1 0 0 -1 0 0 -1 0 0 -1 0 0 -1 0 0 -1 0 0 -1 0 0 -1 0 0 -1 0 0 -1 0 0 -1 0 0 -1 0 0 -1 0 0 -1 0 0 -1 0 0 -1 0 0 -1 0 0 -1 0 0.665605 -0.746304 0 0.665605 -0.746305 0 0.637714 -0.770273 0 0.637714 -0.770273 0 -0.654856 0.755754 0 -0.654856 0.755754 0 -0.712506 0.701666 0 -0.712506 0.701666 0 0.743081 0 0.669201 0.743081 0 0.669201 0.187305 0.927183 0.324422 0.187304 0.927183 0.324422 0.681592 0.731732 0 0.681592 0.731732 0 0 0 1 0 0 1 0 0 1 0 0 1 0 0 1 0 0 1 0 0 1 0 0 1 0 0 1 0 0 1 0 0 1 0 0 1 0 0 1 0 0 1 0 0 1 0 0 1 0 0 1 0 0 1 0 0 1 0 0 1 0 0 1 0 0 1 0.52244 0.852676 0 0.52244 0.852676 0 0.62466 0.780897 0 0.62466 0.780897 0</float_array>
                    <technique_common>
                        <accessor count="432" source="#shape0-lib-normals-array" stride="3">
                            <param name="X" type="float"/>
                            <param name="Y" type="float"/>
                            <param name="Z" type="float"/>
                        </accessor>
                    </technique_common>
                </source>
                <vertices id="shape0-lib-vertices">
                    <input semantic="POSITION" source="#shape0-lib-positions"/>
                </vertices>
                <triangles count="432">
                    <input offset="0" semantic="VERTEX" source="#shape0-lib-vertices"/>
                    <input offset="1" semantic="NORMAL" source="#shape0-lib-normals"/>
                    <p>45 0 76 0 165 0 145 1 146 1 59 1 5 2 151 2 4 2 151 3 152 3 4 3 151 4 5 4 9 4 10 5 3 5 167 5 87 6 4 6 39 6 4 7 152 7 39 7 159 8 160 8 36 8 154 9 196 9 153 9 61 10 62 10 60 10 5 11 6 11 9 11 13 12 25 12 12 12 13 13 29 13 25 13 14 14 144 14 147 14 198 15 197 15 65 15 32 16 198 16 65 16 74 17 165 17 76 17 74 18 75 18 165 18 162 19 39 19 152 19 165 20 75 20 162 20 162 21 75 21 49 21 16 22 201 22 196 22 16 23 196 23 154 23 44 24 45 24 165 24 153 25 195 25 205 25 195 26 153 26 196 26 81 27 176 27 177 27 82 28 176 28 81 28 167 29 3 29 166 29 166 30 3 30 17 30 0 31 14 31 173 31 51 32 169 32 17 32 59 33 146 33 51 33 51 34 17 34 59 34 146 35 144 35 51 35 51 36 144 36 14 36 14 37 0 37 51 37 51 38 0 38 173 38 51 39 173 39 172 39 1 40 62 40 59 40 1 41 3 41 62 41 59 42 17 42 1 42 1 43 17 43 3 43 2 44 10 44 26 44 2 45 3 45 10 45 2 46 26 46 54 46 2 47 54 47 60 47 2 48 62 48 3 48 2 49 60 49 62 49 86 50 4 50 87 50 86 51 5 51 4 51 86 52 6 52 5 52 8 53 18 53 13 53 8 54 9 54 6 54 8 55 6 55 18 55 8 56 13 56 12 56 88 57 102 57 53 57 18 58 6 58 84 58 6 59 86 59 84 59 7 60 156 60 9 60 20 61 156 61 7 61 7 62 9 62 8 62 7 63 12 63 20 63 7 64 8 64 12 64 158 65 151 65 9 65 156 66 158 66 9 66 24 67 22 67 20 67 22 68 10 68 167 68 22 69 23 69 26 69 26 70 10 70 22 70 11 71 20 71 12 71 11 72 24 72 20 72 12 73 25 73 11 73 25 74 24 74 11 74 54 75 55 75 60 75 102 76 30 76 53 76 116 77 30 77 102 77 27 78 29 78 13 78 27 79 13 79 18 79 92 80 54 80 25 80 92 81 25 81 29 81 56 82 14 82 147 82 56 83 33 83 14 83 35 84 159 84 36 84 35 85 34 85 159 85 33 86 32 86 15 86 66 87 173 87 14 87 66 88 14 88 33 88 33 89 15 89 66 89 66 90 32 90 65 90 66 91 15 91 32 91 40 92 162 92 49 92 161 93 16 93 154 93 201 94 16 94 161 94 161 95 34 95 201 95 159 96 34 96 161 96 157 97 44 97 165 97 44 98 157 98 153 98 43 99 153 99 205 99 43 100 44 100 153 100 193 101 42 101 205 101 199 102 200 102 139 102 79 103 76 103 45 103 72 104 48 104 73 104 19 105 47 105 48 105 19 106 49 106 47 106 40 107 19 107 87 107 19 108 40 108 49 108 136 109 55 109 109 109 55 110 136 110 60 110 104 111 193 111 194 111 104 112 42 112 193 112 169 113 168 113 17 113 168 114 166 114 17 114 173 115 67 115 163 115 163 116 164 116 173 116 163 117 36 117 160 117 163 118 69 118 36 118 171 119 51 119 172 119 175 120 82 120 102 120 88 121 175 121 102 121 176 122 82 122 175 122 84 123 90 123 18 123 90 124 27 124 18 124 85 125 72 125 178 125 87 126 19 126 85 126 85 127 48 127 72 127 85 128 19 128 48 128 155 129 156 129 20 129 155 130 20 130 22 130 155 131 22 131 167 131 23 132 22 132 21 132 21 133 22 133 24 133 21 134 24 134 25 134 26 135 23 135 21 135 21 136 54 136 26 136 25 137 54 137 21 137 27 138 52 138 29 138 52 139 53 139 30 139 90 140 52 140 27 140 91 141 92 141 30 141 91 142 116 142 110 142 91 143 30 143 116 143 28 144 92 144 29 144 92 145 28 145 30 145 28 146 29 146 52 146 28 147 52 147 30 147 33 148 56 148 94 148 31 149 32 149 33 149 33 150 94 150 31 150 31 151 94 151 208 151 31 152 208 152 198 152 32 153 31 153 198 153 100 154 99 154 56 154 100 155 147 155 149 155 100 156 56 156 147 156 98 157 200 157 96 157 98 158 96 158 99 158 139 159 200 159 98 159 58 160 149 160 148 160 58 161 148 161 111 161 58 162 100 162 149 162 202 163 35 163 197 163 201 164 34 164 202 164 35 165 202 165 34 165 65 166 197 166 64 166 64 167 197 167 35 167 64 168 35 168 36 168 69 169 64 169 36 169 37 170 67 170 173 170 37 171 173 171 66 171 37 172 66 172 67 172 162 173 38 173 39 173 38 174 162 174 40 174 87 175 39 175 38 175 38 176 40 176 87 176 41 177 205 177 42 177 41 178 43 178 205 178 41 179 104 179 77 179 42 180 104 180 41 180 77 181 44 181 41 181 44 182 43 182 41 182 106 183 50 183 123 183 106 184 212 184 82 184 79 185 71 185 76 185 71 186 79 186 122 186 133 187 45 187 44 187 133 188 79 188 45 188 133 189 44 189 77 189 48 190 47 190 46 190 46 191 75 191 73 191 46 192 73 192 48 192 75 193 46 193 49 193 46 194 47 194 49 194 78 195 136 195 110 195 103 196 127 196 114 196 187 197 116 197 102 197 187 198 114 198 116 198 178 199 72 199 121 199 121 200 72 200 122 200 50 201 121 201 123 201 121 202 177 202 178 202 106 203 121 203 50 203 68 204 163 204 67 204 169 205 51 205 150 205 51 206 171 206 150 206 173 207 164 207 170 207 179 208 90 208 84 208 179 209 85 209 178 209 89 210 52 210 90 210 89 211 88 211 53 211 52 212 89 212 53 212 54 213 92 213 93 213 93 214 109 214 55 214 93 215 55 215 54 215 183 216 56 216 182 216 183 217 94 217 56 217 95 218 181 218 182 218 95 219 99 219 96 219 95 220 182 220 56 220 56 221 99 221 95 221 99 222 100 222 140 222 139 223 98 223 140 223 57 224 190 224 100 224 57 225 100 225 58 225 57 226 191 226 190 226 57 227 58 227 111 227 57 228 111 228 191 228 111 229 148 229 112 229 112 230 148 230 145 230 112 231 145 231 59 231 60 232 112 232 61 232 136 233 112 233 60 233 112 234 59 234 62 234 112 235 62 235 61 235 65 236 64 236 63 236 63 237 66 237 65 237 67 238 66 238 63 238 63 239 68 239 67 239 63 240 64 240 69 240 69 241 163 241 63 241 63 242 163 242 68 242 70 243 71 243 122 243 70 244 122 244 72 244 72 245 73 245 70 245 75 246 74 246 70 246 70 247 73 247 75 247 70 248 74 248 76 248 71 249 70 249 76 249 118 250 77 250 104 250 118 251 133 251 77 251 115 252 217 252 136 252 115 253 136 253 78 253 115 254 110 254 116 254 115 255 78 255 110 255 82 256 212 256 101 256 102 257 82 257 101 257 101 258 103 258 102 258 102 259 103 259 186 259 117 260 118 260 104 260 204 261 127 261 103 261 204 262 103 262 101 262 204 263 101 263 209 263 105 264 212 264 106 264 79 265 132 265 122 265 133 266 132 266 79 266 81 267 177 267 80 267 177 268 121 268 80 268 80 269 82 269 81 269 80 270 106 270 82 270 80 271 121 271 106 271 83 272 179 272 84 272 85 273 179 273 83 273 83 274 84 274 86 274 83 275 86 275 87 275 87 276 85 276 83 276 174 277 175 277 88 277 88 278 89 278 174 278 174 279 90 279 179 279 174 280 89 280 90 280 108 281 92 281 91 281 108 282 93 282 92 282 108 283 91 283 110 283 108 284 109 284 93 284 208 285 94 285 180 285 180 286 94 286 183 286 211 287 95 287 96 287 181 288 95 288 211 288 200 289 211 289 96 289 97 290 98 290 99 290 99 291 140 291 97 291 97 292 140 292 98 292 189 293 140 293 100 293 189 294 100 294 190 294 217 295 115 295 216 295 114 296 143 296 216 296 126 297 114 297 127 297 126 298 143 298 114 298 210 299 101 299 212 299 209 300 101 300 210 300 185 301 187 301 102 301 186 302 185 302 102 302 114 303 187 303 184 303 184 304 103 304 114 304 184 305 186 305 103 305 207 306 117 306 206 306 206 307 104 307 194 307 206 308 117 308 104 308 120 309 105 309 106 309 105 310 120 310 212 310 120 311 106 311 123 311 134 312 133 312 118 312 108 313 107 313 109 313 107 314 108 314 110 314 107 315 136 315 109 315 110 316 136 316 107 316 188 317 191 317 111 317 111 318 112 318 188 318 188 319 112 319 136 319 114 320 216 320 113 320 113 321 216 321 115 321 116 322 114 322 113 322 113 323 115 323 116 323 126 324 138 324 143 324 138 325 199 325 139 325 204 326 203 326 127 326 129 327 117 327 207 327 134 328 129 328 135 328 118 329 117 329 129 329 129 330 134 330 118 330 131 331 135 331 212 331 131 332 212 332 120 332 131 333 120 333 132 333 120 334 119 334 132 334 119 335 121 335 122 335 119 336 122 336 132 336 123 337 121 337 119 337 119 338 120 338 123 338 215 339 137 339 189 339 124 340 140 340 189 340 124 341 137 341 140 341 124 342 189 342 137 342 125 343 203 343 199 343 125 344 199 344 138 344 125 345 138 345 126 345 125 346 126 346 127 346 127 347 203 347 125 347 192 348 129 348 207 348 213 349 129 349 192 349 128 350 213 350 212 350 128 351 129 351 213 351 128 352 212 352 135 352 128 353 135 353 129 353 130 354 131 354 132 354 130 355 132 355 133 355 130 356 133 356 134 356 130 357 134 357 135 357 135 358 131 358 130 358 136 359 217 359 214 359 214 360 188 360 136 360 142 361 137 361 215 361 138 362 142 362 143 362 142 363 138 363 139 363 140 364 142 364 139 364 142 365 140 365 137 365 141 366 215 366 216 366 141 367 142 367 215 367 141 368 216 368 143 368 143 369 142 369 141 369 146 370 145 370 144 370 144 371 145 371 147 371 145 372 148 372 147 372 148 373 149 373 147 373 152 374 151 374 150 374 154 375 153 375 150 375 156 376 155 376 150 376 157 377 150 377 153 377 150 378 158 378 156 378 160 379 159 379 150 379 159 380 161 380 150 380 150 381 162 381 152 381 150 382 164 382 163 382 165 383 162 383 150 383 167 384 166 384 150 384 166 385 168 385 150 385 151 386 158 386 150 386 150 387 161 387 154 387 150 388 157 388 165 388 150 389 168 389 169 389 150 390 163 390 160 390 150 391 155 391 167 391 170 392 171 392 172 392 170 393 172 393 173 393 150 394 170 394 164 394 170 395 150 395 171 395 176 396 175 396 174 396 174 397 177 397 176 397 174 398 178 398 177 398 174 399 179 399 178 399 181 400 180 400 182 400 180 401 183 401 182 401 184 402 185 402 186 402 187 403 185 403 184 403 188 404 189 404 190 404 190 405 191 405 188 405 194 406 193 406 192 406 192 407 195 407 196 407 192 408 197 408 198 408 200 409 199 409 192 409 192 410 196 410 201 410 192 411 202 411 197 411 192 412 203 412 204 412 195 413 192 413 205 413 207 414 206 414 192 414 198 415 208 415 192 415 192 416 193 416 205 416 192 417 204 417 209 417 209 418 210 418 192 418 192 419 180 419 181 419 201 420 202 420 192 420 181 421 211 421 192 421 208 422 180 422 192 422 192 423 211 423 200 423 192 424 210 424 212 424 192 425 206 425 194 425 212 426 213 426 192 426 199 427 203 427 192 427 216 428 215 428 214 428 217 429 216 429 214 429 214 430 189 430 188 430 214 431 215 431 189 431</p>
                </triangles>
            </mesh>
        </geometry>
    </library_geometries>
    <library_visual_scenes>
        <visual_scene id="VisualSceneNode" name="VisualScene">
            <node id="node" name="node">
                <instance_geometry url="#shape0-lib"/>
            </node>
        </visual_scene>
    </library_visual_scenes>
    <scene>
        <instance_visual_scene url="#VisualSceneNode"/>
    </scene>
</COLLADA>
